<?xml version="1.0" encoding="utf-8"?>
<!-- Generator: Adobe Illustrator 19.1.0, SVG Export Plug-In . SVG Version: 6.00 Build 0)  -->
<svg version="1.1" id="Layer_1" xmlns="http://www.w3.org/2000/svg" xmlns:xlink="http://www.w3.org/1999/xlink" x="0px" y="0px"
	 viewBox="-288 374.7 34 45.3" style="enable-background:new -288 374.7 34 45.3;" xml:space="preserve">
<style type="text/css">
	.st0{fill:#0064C9;}
</style>
<path class="st0" d="M-255.1,404.4l-12.7,14.2c-0.8,0.9-1.9,1.4-3.2,1.4s-2.4-0.5-3.2-1.4l-12.7-14.2c-0.7-0.7-1.1-1.7-1.1-2.8
	c0-2.3,1.9-4.2,4.2-4.2c1.3,0,2.4,0.5,3.2,1.4l5.3,5.9v-25.8c0-2.3,2-4.2,4.3-4.2s4.2,1.9,4.2,4.2v25.8l5.3-5.9
	c0.8-0.9,1.9-1.4,3.2-1.4c2.3,0,4.2,1.9,4.2,4.2C-254,402.7-254.4,403.7-255.1,404.4z"/>
</svg>
